{
  "cube_name": "PLANIFICACION",
  "cube_reports": [ {
     "name": "consulta planificacion tempo validacion",
     "result_view": "table",
     "definition": {"columns":{"dimensions":[{"name":"Measures","selected_set":["[Measures].[Commitment]","[Measures].[Seconds Per Day]","[Measures].[Seconds]","[Measures].[Plan ItemEstimated Remaining Seconds]"],"members":[]}]},"rows":{"dimensions":[{"name":"Plan ItemKey","selected_set":["[Plan ItemKey].[Plan ItemKey].Members"],"members":[],"bookmarked_members":[]},{"name":"AssigneeUser Key","selected_set":["[AssigneeUser Key].[pamela.miranda]"],"selected_set_expression":"DescendantsSet({{selected_set}}, [AssigneeUser Key].[AssigneeUser Key])","members":[],"bookmarked_members":[]}],"nonempty_crossjoin":true},"pages":{"dimensions":[{"name":"AssigneeUser Key","duplicate":true,"selected_set":["[AssigneeUser Key].[All AssigneeUser Keys]"],"members":[{"depth":0,"name":"All AssigneeUser Keys","full_name":"[AssigneeUser Key].[All AssigneeUser Keys]","drillable":true,"type":"all","expanded":true,"drilled_into":false},{"depth":1,"name":"pamela.miranda","full_name":"[AssigneeUser Key].[pamela.miranda]","parent_full_name":"[AssigneeUser Key].[All AssigneeUser Keys]"}],"bookmarked_members":[],"current_page_members":["[AssigneeUser Key].[pamela.miranda]"]}]},"options":{},"view":{"current":"table","maximized":false,"table":{"row_dimension_headers":{"AssigneeUser Key":true,"Plan ItemKey":true}}}}
  } ],
  "calculated_members": []
}
