{
  "application_type": "sql",
  "application_params": {
    "source_params": {
      "adapter": "postgresql",
      "host": "152.139.147.122",
      "port": 5432,
      "database": "eazybi_qa",
      "username": "postgres",
      "password": null,
      "incremental": null,
      "sql": "/*\r\nNombre CUBO : base1\r\nServidor : 152.139.147.122\r\npuerto : 5432\r\nbase de datos : eazybi_qa\r\nusuario : postgres\r\nCliente : BCH-GESCAP\r\n*/\r\n\r\n\r\nSELECT\r\n\tplanificacion.id,\r\n\tplanificacion.\"codigo\", \r\n\tplanificacion.\"Nombre\",\r\n\tplanificacion.\"Usuario Asignado\", \r\n\tplanificacion.\"Usuario Asignado Sistema\", \r\n\tplanificacion.\"Estado Issue\",\r\n\tplanificacion.\"Fecha inicio plan\", \r\n\tplanificacion.\"Fecha termino plan\", \r\n\tplanificacion.\"Segundos planificados por dia\", \r\n\tplanificacion.\"Segundos totales planificados\", \r\n\tplanificacion.\"Segundos disponibles para estimacion\",\r\n\tplanificacion.\"Planificacion creada por (USER)\", \r\n\tplanificacion.\"Planificacion creada por (KEY)\",\r\n\tdwh_22.d_membership_beanrolename.membership_beanrolename\t\t          AS \"Rol\",\r\n\tdwh_22.c_miembros.membershipavailability\t\t\t\t\t\t\t\t\t\t          AS \"% Asignado\",\r\n\tdwh_22.d_membership_beandate_from_ansi.membership_beandate_from_ansi\tAS \"Fecha inicio plan\",\r\n\tdwh_22.d_membership_beandate_to_ansi.membership_beandate_to_ansi\t\t\tAS \"Fecha termino plan\",\r\n\tdwh_22.d_member_beandisplayname.member_beandisplayname\t\t\t\t\t\t\t\tAS \"Nombre completo Usuario\",\r\n\tdwh_22.d_membership_beanstatus.membership_beanstatus\t\t\t\t\t\t\t\t  AS \"Estado en el equipo\",\r\n\tdwh_22.d_name.\"name\" \t\t\t\t\t\t\t\t\t\t\t\t\t\t\t\t\t\t\t\t          AS \"Nombre Departamento\",\r\n\tdwh_22.d_member_beanname.member_beanname,\r\n\tincidentes.planificacion_original \t\t\t\t\t\t\t\t\t\t\t\t\t          AS \"Planificacion Base\",\r\n\tincidentes.incidente_padre\t\t\t\t\t\t\t\t\t\t\t\t\t\t\t\t\t          AS \"KEY PROJECTO\",\r\n\tincidentes.descripcion_origen\t\t\t\t\t\t\t\t\t\t\t\t\t\t\t\t          AS \"DESC PROJECTO\",\r\n\tincidentes.estado_incidente_padre\t\t\t\t\t\t\t\t\t\t\t\t\t\t          AS \"ESTADO PROJECTO\",\r\n\tincidentes.incidente_hijo\t\t\t\t\t\t\t\t\t\t\t\t\t\t\t\t\t\t          AS \"KEY TAREA\",\r\n\tincidentes.descripcion_destino\t\t\t\t\t\t\t\t\t\t\t\t\t\t\t          AS \"DESC TAREA\",\r\n\t--incidentes.estado_incidente_hijo\t\t\t\t\t\t\t\t\t\t\t\t\t\t        AS \"ESTADO TAREA\",\r\n\t--incidentes.incidente_hijosubincidente \t\t\t\t\t\t\t\t\t\t\t        AS \"KEY SUBTAREA\",\r\n\t--incidentes.nombre_subtask\t\t\t\t\t\t\t\t\t\t\t\t\t\t\t\t\t\t        AS \"DESC SUBTAREA\",\r\n\t--incidentes.estado_sub_task\t\t\t\t\t\t\t\t\t\t\t\t\t\t\t\t\t        AS \"ESTADO SUBTAREA\",\r\n\tincidentes.usuario_jefe_de_fabrica, \r\n\tincidentes.usuario_lider_de_fabrica, \r\n\tincidentes.usuario_lider_proyecto,\r\n\tincidentes.comite_estimado,\r\n\tincidentes.funnel\r\nFROM\r\ndwh_22.c_miembros\r\nLEFT JOIN dwh_22.d_membership_beanrolename \t\t\tON dwh_22.c_miembros.membershiprolename_id \t\t\t\t\t\t= dwh_22.d_membership_beanrolename.\"id\"\r\nLEFT JOIN dwh_22.d_membership_beandate_from_ansi \tON dwh_22.c_miembros.membership_beandate_from_ansi_id \t\t\t= dwh_22.d_membership_beandate_from_ansi.\"id\"\r\nLEFT JOIN dwh_22.d_membership_beandate_to_ansi \t\tON dwh_22.c_miembros.membership_beandate_to_ansi_id\t\t\t\t= dwh_22.d_membership_beandate_to_ansi.\"id\"\r\nLEFT JOIN dwh_22.d_member_beandisplayname \t\t\tON dwh_22.c_miembros.member_beandisplayname_id \t\t\t\t\t= dwh_22.d_member_beandisplayname.\"id\"\r\nLEFT JOIN dwh_22.d_membership_beanstatus \t\t\tON dwh_22.c_miembros.membership_beanstatu_id \t\t\t\t\t= dwh_22.d_membership_beanstatus.\"id\"\r\nLEFT JOIN dwh_22.d_memberkey \t\t\t\t\t\tON dwh_22.c_miembros.memberkey_id \t\t\t\t\t\t\t\t= dwh_22.d_memberkey.\"id\"\r\nINNER JOIN dwh_22.c_equipos \t\t\t\t\t\tON dwh_22.c_miembros.membership_beanteam \t\t\t\t\t\t= dwh_22.c_equipos.\"id\"\r\nINNER JOIN dwh_22.d_name \t\t\t\t\t\tON dwh_22.c_equipos.name_id \t\t\t\t\t\t\t\t\t= dwh_22.d_name.\"id\"\r\nINNER JOIN dwh_22.d_member_beanname \t\t\tON dwh_22.c_miembros.member_beanname_id \t\t\t\t\t\t= dwh_22.d_member_beanname.\"id\"\r\nLEFT JOIN (\r\n\t\tSELECT\r\n\t\t\t\t\tdwh_22.c_planificacion.\"id\",\r\n\t\t\t\t\tdwh_22.d_plan_itemkey.plan_itemkey \t\t\t\t\t\t\t\t\t\t\t\t\t\t\t\t\tas \"codigo\", \r\n\t\t\t\t\tdwh_22.d_plan_itemsummary.plan_itemsummary\t\t\t\t\t\t\t\t\t\t\t\t\tas \"Nombre\",\r\n\t\t\t\t\tdwh_22.d_assigneekey.assigneekey\t\t\t\t\t\t\t\t\t\t\t\t\t\t\t\t\t\tas \"Usuario Asignado\", \r\n\t\t\t\t\tdwh_22.d_assigneeuser_key.assigneeuser_key\t\t\t\t\t\t\t\t\t\t\t\t\tas \"Usuario Asignado Sistema\", \r\n\t\t\t\t\tdwh_22.d_plan_itemissue_statusname.plan_itemissue_statusname  \t\t\tas \"Estado Issue\",\r\n\t\t\t\t\tdwh_22.d_start.time_value\t\t\t\t\t\t\t\t\t\t\t\t\t\t\t\t\t\t\t\t\t\tas \"Fecha inicio plan\", \r\n\t\t\t\t\tdwh_22.d_end.time_value \t\t\t\t\t\t\t\t\t\t\t\t\t\t\t\t\t\t\t\t\t\tas \"Fecha termino plan\", \r\n\t\t\t\t\tdwh_22.c_planificacion.seconds_per_day\t\t\t\t\t\t\t\t\t\t\t\t\t\t\tas \"Segundos planificados por dia\", \r\n\t\t\t\t\tdwh_22.c_planificacion.seconds\t\t\t\t\t\t\t\t\t\t\t\t\t\t\t\t\t\t\tas \"Segundos totales planificados\", \r\n\t\t\t\t\tdwh_22.c_planificacion.plan_itemestimated_remaining_seconds\t\t\t\t\tas \"Segundos disponibles para estimacion\",\r\n\t\t\t\t\tdwh_22.d_created_by.created_by\t\t\t\t\t\t\t\t\t\t\t\t\t\t\t\t\t\t\tas \"Planificacion creada por (USER)\", \r\n\t\t\t\t\tdwh_22.d_created_by_key.created_by_key\t\t\t\t\t\t\t\t\t\t\t\t\t\t\tas \"Planificacion creada por (KEY)\"\r\n\t\tFROM dwh_22.c_planificacion \r\n\t\t\t\t\tLEFT JOIN dwh_22.d_assigneekey \t\t\t\t\t\t\t\t\t\t\t\tON dwh_22.c_planificacion.assigneekey_id \t\t\t\t\t\t\t\t= dwh_22.d_assigneekey.\"id\"\r\n\t\t\t\t\tLEFT JOIN dwh_22.d_assigneeuser_key \t\t\t\t\t\t\t\t\tON dwh_22.c_planificacion.assigneeuser_key_id \t\t\t\t\t= dwh_22.d_assigneeuser_key.\"id\"\r\n\t\t\t\t\tLEFT JOIN dwh_22.d_plan_itemkey \t\t\t\t\t\t\t\t\t\t\tON dwh_22.c_planificacion.plan_itemkey_id \t\t\t\t\t\t\t= dwh_22.d_plan_itemkey.\"id\"\r\n\t\t\t\t\tLEFT JOIN dwh_22.d_plan_itemsummary \t\t\t\t\t\t\t\t\tON dwh_22.c_planificacion.plan_itemsummary_id \t\t\t\t\t= dwh_22.d_plan_itemsummary.\"id\"\r\n\t\t\t\t\tLEFT JOIN dwh_22.d_start_time \t\t\t\t\t\t\t\t\t\t\t\tON dwh_22.c_planificacion.start_time_id \t\t\t\t\t\t\t\t\t= dwh_22.d_start_time.\"id\"\r\n\t\t\t\t\tLEFT JOIN dwh_22.d_start \t\t\t\t\t\t\t\t\t\t\t\t\t\t\tON dwh_22.c_planificacion.start_id \t\t\t\t\t\t\t\t\t\t\t= dwh_22.d_start.\"id\"\r\n\t\t\t\t\tLEFT JOIN dwh_22.d_end \t\t\t\t\t\t\t\t\t\t\t\t\t\t\t\tON dwh_22.c_planificacion.end_id \t\t\t\t\t\t\t\t\t\t\t\t= dwh_22.d_end.\"id\"\r\n\t\t\t\t\tLEFT JOIN dwh_22.d_plan_itemissue_statusname\t\t\t\t\tON dwh_22.c_planificacion.plan_itemissue_statusname_id \t= d_plan_itemissue_statusname.\"id\"\r\n\t\t\t\t\tLEFT JOIN  dwh_22.d_created_by \t\t\t\t\t\t\t\t\t\t\t\tON dwh_22.c_planificacion.created_by_id \t\t\t\t\t\t\t\t= dwh_22.d_created_by.\"id\"\r\n\t\t\t\t\tLEFT JOIN  dwh_22.d_created_by_key \t\t\t\t\t\t\t\t\t\tON dwh_22.c_planificacion.created_by_key_id \t\t\t\t\t\t= dwh_22.d_created_by_key.\"id\"\r\n\t) \r\n\tas \"planificacion\" on dwh_22.d_member_beanname.member_beanname = \"planificacion\".\"Usuario Asignado\"\r\n\tLEFT JOIN (\r\n\tSELECT\r\n\t\tdwh_22.d_incidente_padre.incidente_padre,\r\n\t\tdwh_22.d_descripcion_origen.descripcion_origen,\r\n\t\tdwh_22.d_estado_incidente_padre.estado_incidente_padre,\r\n\t\tdwh_22.d_usuario_jefe_de_fabrica.usuario_jefe_de_fabrica,\r\n\t\tdwh_22.d_usuario_lider_de_fabrica.usuario_lider_de_fabrica,\r\n\t\tdwh_22.d_usuario_lider_proyecto.usuario_lider_proyecto,\r\n\t\tdwh_22.d_incidente_hijo.incidente_hijo,\r\n\t\tdwh_22.d_descripcion_destino.descripcion_destino,\r\n\t\tdwh_22.c_data_jira.planificacion_original,\r\n\t\t--dwh_22.d_estado_incidente_hijo.estado_incidente_hijo,\r\n\t\t--dwh_22.d_incidente_hijosubincidente.incidente_hijosubincidente,\r\n\t\t--dwh_22.d_nombre_subtask.nombre_subtask,\r\n\t\t--dwh_22.d_estado_sub_task.estado_sub_task,\r\n\t\tdwh_22.d_comite_estimado.comite_estimado,\r\n\t\tdwh_22.d_funnel.funnel\r\n\tFROM\r\n\tdwh_22.c_data_jira\r\n\t\tINNER JOIN dwh_22.d_descripcion_origen ON dwh_22.c_data_jira.descripcion_origen_id = dwh_22.d_descripcion_origen.\"id\"\r\n\t\tINNER JOIN dwh_22.d_incidente_hijo ON dwh_22.c_data_jira.incidente_hijo_id = dwh_22.d_incidente_hijo.\"id\"\r\n\t\t--INNER JOIN dwh_22.d_incidente_hijosubincidente ON dwh_22.c_data_jira.incidente_hijosubincidente_id = dwh_22.d_incidente_hijosubincidente.\"id\"\r\n\t\tINNER JOIN dwh_22.d_descripcion_destino ON dwh_22.c_data_jira.descripcion_destino_id = dwh_22.d_descripcion_destino.\"id\"\r\n\t\t--INNER JOIN dwh_22.d_nombre_subtask ON dwh_22.c_data_jira.nombre_subtask_id = dwh_22.d_nombre_subtask.\"id\"\r\n\t\tINNER JOIN dwh_22.d_incidente_padre ON dwh_22.c_data_jira.incidente_padre_id = dwh_22.d_incidente_padre.\"id\"\r\n\t\tINNER JOIN dwh_22.d_estado_incidente_padre ON dwh_22.c_data_jira.estado_incidente_padre_id = dwh_22.d_estado_incidente_padre.\"id\"\r\n\t\tINNER JOIN dwh_22.d_estado_incidente_hijo ON dwh_22.c_data_jira.estado_incidente_hijo_id = dwh_22.d_estado_incidente_hijo.\"id\"\r\n\t\t--INNER JOIN dwh_22.d_estado_sub_task ON dwh_22.c_data_jira.estado_sub_task_id = dwh_22.d_estado_sub_task.\"id\"\r\n\t\t--INNER JOIN dwh_22.d_planificacion_original ON dwh_22.c_data_jira.planificacion_original_id = dwh_22.d_planificacion_original.\"id\"\r\n\t\tLEFT JOIN dwh_22.d_usuario_jefe_de_fabrica ON dwh_22.c_data_jira.usuario_jefe_de_fabrica_id = dwh_22.d_usuario_jefe_de_fabrica.\"id\"\r\n\t\tLEFT JOIN dwh_22.d_usuario_lider_de_fabrica ON dwh_22.c_data_jira.usuario_lider_de_fabrica_id = dwh_22.d_usuario_lider_de_fabrica.\"id\"\r\n\t\tLEFT JOIN dwh_22.d_usuario_lider_proyecto ON dwh_22.c_data_jira.usuario_lider_proyecto_id = dwh_22.d_usuario_lider_proyecto.\"id\"\r\n\t\tLEFT JOIN dwh_22.d_funnel ON dwh_22.c_data_jira.funnel_id = dwh_22.d_funnel.\"id\"\r\n\t\tLEFT JOIN dwh_22.d_comite_estimado on dwh_22.c_data_jira.comite_estimado_id = dwh_22.d_comite_estimado.\"id\"\r\n\t)\r\n\tAS \"incidentes\" on \"planificacion\".codigo = incidentes.incidente_hijo"
    },
    "columns_options": {
      "default_names": true
    },
    "extra_options": {
      "regular_import_frequency": null,
      "regular_import_at": "",
      "time_zone": "Santiago"
    }
  },
  "source_cube_name": "BASE1",
  "columns": [
    {
      "name": "id",
      "data_type": "integer",
      "dimension": "Measures",
      "dimension_member": "Id"
    },
    {
      "name": "codigo",
      "data_type": "string",
      "dimension": "Codigo"
    },
    {
      "name": "Nombre",
      "data_type": "string",
      "dimension": "Nombre"
    },
    {
      "name": "Usuario Asignado",
      "data_type": "string",
      "dimension": "Usuario asignado"
    },
    {
      "name": "Usuario Asignado Sistema",
      "data_type": "string",
      "dimension": "Usuario asignado sistema"
    },
    {
      "name": "Estado Issue",
      "data_type": "string",
      "dimension": "Estado issue"
    },
    {
      "name": "Fecha inicio plan",
      "data_type": "date",
      "dimension": "Fecha inicio plan"
    },
    {
      "name": "Fecha termino plan",
      "data_type": "date",
      "dimension": "Fecha termino plan"
    },
    {
      "name": "Segundos planificados por dia",
      "data_type": "decimal",
      "dimension": "Measures",
      "dimension_member": "Segundos planificados por dia"
    },
    {
      "name": "Segundos totales planificados",
      "data_type": "decimal",
      "dimension": "Measures",
      "dimension_member": "Segundos totales planificados"
    },
    {
      "name": "Segundos disponibles para estimacion",
      "data_type": "decimal",
      "dimension": "Measures",
      "dimension_member": "Segundos disponibles para estimacion"
    },
    {
      "name": "Planificacion creada por (USER)",
      "data_type": "string",
      "dimension": "Planificacion creada por (user)"
    },
    {
      "name": "Planificacion creada por (KEY)",
      "data_type": "string",
      "dimension": "Planificacion creada por (key)"
    },
    {
      "name": "Rol",
      "data_type": "string",
      "dimension": "Rol"
    },
    {
      "name": "% Asignado",
      "data_type": "decimal",
      "dimension": "Measures",
      "dimension_member": "% asignado"
    },
    {
      "name": "Nombre completo Usuario",
      "data_type": "string",
      "dimension": "Nombre completo usuario"
    },
    {
      "name": "Estado en el equipo",
      "data_type": "string",
      "dimension": "Estado en el equipo"
    },
    {
      "name": "Nombre Departamento",
      "data_type": "string",
      "dimension": "Nombre departamento"
    },
    {
      "name": "member_beanname",
      "data_type": "string",
      "dimension": "Member BeanName"
    },
    {
      "name": "Planificacion Base",
      "data_type": "decimal",
      "dimension": "Measures",
      "dimension_member": "Planificacion base"
    },
    {
      "name": "KEY PROJECTO",
      "data_type": "string",
      "dimension": "Key projecto"
    },
    {
      "name": "DESC PROJECTO",
      "data_type": "string",
      "dimension": "Desc projecto"
    },
    {
      "name": "ESTADO PROJECTO",
      "data_type": "string",
      "dimension": "Estado projecto"
    },
    {
      "name": "KEY TAREA",
      "data_type": "string",
      "dimension": "Key tarea"
    },
    {
      "name": "DESC TAREA",
      "data_type": "string",
      "dimension": "Desc tarea"
    },
    {
      "name": "usuario_jefe_de_fabrica",
      "data_type": "string",
      "dimension": "Usuario jefe de fabrica"
    },
    {
      "name": "usuario_lider_de_fabrica",
      "data_type": "string",
      "dimension": "Usuario lider de fabrica"
    },
    {
      "name": "usuario_lider_proyecto",
      "data_type": "string",
      "dimension": "Usuario lider proyecto"
    },
    {
      "name": "comite_estimado",
      "data_type": "string",
      "dimension": "Comite estimado"
    },
    {
      "name": "funnel",
      "data_type": "string",
      "dimension": "Funnel"
    }
  ]
}