{
  "application_type": "sql",
  "application_params": {
    "source_params": {
      "adapter": "postgresql",
      "host": "152.139.147.122",
      "port": 5432,
      "database": "eazybi_qa",
      "username": "postgres",
      "password": null,
      "incremental": null,
      "sql": "/*\r\nNombre CUBO : base\r\nServidor : 152.139.147.122\r\npuerto : 5432\r\nbase de datos : eazybi_qa\r\nusuario : postgres\r\nCliente : BCH-GESCAP\r\n*/\r\nSELECT\r\n  dwh_22.c_planificacion.\"id\",\r\n\tdwh_22.d_plan_itemkey.plan_itemkey \t\t\t\t\t\t\t\t\t\t\t\t\t\t\tas \"codigo\", \r\n\tdwh_22.d_plan_itemsummary.plan_itemsummary\t\t\t\t\t\t\t\t\t\t\t\t\tas \"Nombre\",\r\n\tdwh_22.d_assigneekey.assigneekey\t\t\t\t\t\t\t\t\t\t\t\t\t\t\tas \"Usuario Asignado\", \r\n\tdwh_22.d_assigneeuser_key.assigneeuser_key\t\t\t\t\t\t\t\t\t\t\t\t\tas \"Usuario Asignado Sistema\", \r\n\tdwh_22.d_plan_itemissue_statusname.plan_itemissue_statusname  \t\t\t\t\t\t\t\tas \"Estado Issue\",\r\n\t\tteam.membership_beanrolename\t\t\t\t\t\t\t\t\t\t\t\t\t\t\tas \"Rol\",\r\n  \tteam.membershipavailability\t\t\t\t\t\t\t\t\t\t\t\t\t\t\t\t\tas \"% Asignado\",\r\n\t\tteam.\"Nombre Departamento\",\r\n\tdwh_22.d_start.time_value\t\t\t\t\t\t\t\t\t\t\t\t\t\t\t\t\tas \"Fecha inicio plan\", \r\n\tdwh_22.d_end.time_value \t\t\t\t\t\t\t\t\t\t\t\t\t\t\t\t\tas \"Fecha termino plan\", \r\n\tdwh_22.c_planificacion.seconds_per_day\t\t\t\t\t\t\t\t\t\t\t\t\t\tas \"Segundos planificados por dia\", \r\n\tdwh_22.c_planificacion.seconds\t\t\t\t\t\t\t\t\t\t\t\t\t\t\t\tas \"Segundos totales planificados\", \r\n\tdwh_22.c_planificacion.plan_itemestimated_remaining_seconds\t\t\t\t\t\t\t\t\tas \"Segundos disponibles para estimacion\",\r\n\t\tincidentes.planificacion_original\t\t\t\t\t\t\t\t\t\t\t\t\t\tas \"Planificacion Base\",\r\n\t\tworklog.hours\t\t\t\t\t\t\t\t\t\t\t\t\t\t\t\t\t\t\tas \"Horas registradas\",\r\n\tdwh_22.d_created_by.created_by\t\t\t\t\t\t\t\t\t\t\t\t\t\t\t\tas \"Planificacion creada por (USER)\", \r\n\tdwh_22.d_created_by_key.created_by_key\t\t\t\t\t\t\t\t\t\t\t\t\t\tas \"Planificacion creada por (KEY)\",\r\n\t\tincidentes.incidente_padre\t\t\t\t\t\t\t\t\t\t\t\t\t\t\t\tas \"KEY PROJECTO\",\r\n\t\tincidentes.descripcion_origen\t\t\t\t\t\t\t\t\t\t\t\t\t\t\tas \"DESC PROJECTO\",\r\n\t\tincidentes.estado_incidente_padre\t\t\t\t\t\t\t\t\t\t\t\t\t\tas \"ESTADO PROJECTO\",\r\n\t\tincidentes.incidente_hijo\t\t\t\t\t\t\t\t\t\t\t\t\t\t\t\tas \"KEY TAREA\",\r\n\t\tincidentes.descripcion_destino\t\t\t\t\t\t\t\t\t\t\t\t\t\t\tas \"DESC TAREA\",\r\n\t\t--incidentes.estado_incidente_hijo\t\t\t\t\t\t\t\t\t\t\t\t\t\tas \"ESTADO TAREA\",\r\n\t\t--incidentes.incidente_hijosubincidente \t\t\t\t\t\t\t\t\t\t\tas \"KEY SUBTAREA\",\r\n\t\t--incidentes.nombre_subtask\t\t\t\t\t\t\t\t\t\t\t\t\t\t\t\t\t\tas \"DESC SUBTAREA\",\r\n\t\t--incidentes.estado_sub_task\t\t\t\t\t\t\t\t\t\t\t\t\t\t\t\t\tas \"ESTADO SUBTAREA\",\r\n\t\tincidentes.usuario_jefe_de_fabrica, \r\n\t\tincidentes.usuario_lider_de_fabrica, \r\n\t\tincidentes.usuario_lider_proyecto,\r\n\t\tincidentes.comite_estimado,\r\n\t\tincidentes.funnel\r\n\r\nFROM dwh_22.c_planificacion\r\n\t\t\t\t\t\t\t\t\tINNER JOIN dwh_22.d_assigneekey \t\t\t\t\t\t\t\tON dwh_22.c_planificacion.assigneekey_id \t\t= dwh_22.d_assigneekey.\"id\"\r\n\t\t\t\t\t\t\t\t\tINNER JOIN dwh_22.d_assigneeuser_key \t\t\t\t\t\tON dwh_22.c_planificacion.assigneeuser_key_id \t= dwh_22.d_assigneeuser_key.\"id\"\r\n\t\t\t\t\t\t\t\t\tINNER JOIN dwh_22.d_plan_itemkey \t\t\t\t\t\t\t\tON dwh_22.c_planificacion.plan_itemkey_id \t\t= dwh_22.d_plan_itemkey.\"id\"\r\n\t\t\t\t\t\t\t\t\tINNER JOIN dwh_22.d_plan_itemsummary \t\t\t\t\t\tON dwh_22.c_planificacion.plan_itemsummary_id \t= dwh_22.d_plan_itemsummary.\"id\"\r\n\t\t\t\t\t\t\t\t\tINNER JOIN dwh_22.d_start_time \t\t\t\t\t\t\t\t\tON dwh_22.c_planificacion.start_time_id \t\t\t= dwh_22.d_start_time.\"id\"\r\n\t\t\t\t\t\t\t\t\tINNER JOIN dwh_22.d_start \t\t\t\t\t\t\t\t\t\t\tON dwh_22.c_planificacion.start_id \t\t\t\t= dwh_22.d_start.\"id\"\r\n\t\t\t\t\t\t\t\t\tINNER JOIN dwh_22.d_end \t\t\t\t\t\t\t\t\t\t\t\tON dwh_22.c_planificacion.end_id \t\t\t\t= dwh_22.d_end.\"id\"\r\n\t\t\t\t\t\t\t\t\tINNER JOIN dwh_22.d_plan_itemissue_statusname\t\tON dwh_22.c_planificacion.plan_itemissue_statusname_id = d_plan_itemissue_statusname.\"id\"\r\n\t\t\t\t\t\t\t\t\tLEFT JOIN  dwh_22.d_created_by \t\t\t\t\t\t\t\t\tON dwh_22.c_planificacion.created_by_id \t\t= dwh_22.d_created_by.\"id\"\r\n\t\t\t\t\t\t\t\t\tLEFT JOIN  dwh_22.d_created_by_key \t\t\t\t\t\t\tON dwh_22.c_planificacion.created_by_key_id \t= dwh_22.d_created_by_key.\"id\"\r\n\t\t\t\t\t\t\t\t\tLEFT JOIN \r\n\t\t\t\t\t\t\t\t\t\t\t( \r\n\t\t\t\t\t\t\t\t\t\t\t SELECT\r\n\t\t\t\t\t\t\t\t\t\t\t\t\tdwh_22.d_membership_beanrolename.membership_beanrolename,\r\n\t\t\t\t\t\t\t\t\t\t\t\t\tdwh_22.c_miembros.membershipavailability,\r\n\t\t\t\t\t\t\t\t\t\t\t\t\tdwh_22.d_membership_beandate_from_ansi.membership_beandate_from_ansi,\r\n\t\t\t\t\t\t\t\t\t\t\t\t\tdwh_22.d_membership_beandate_to_ansi.membership_beandate_to_ansi,\r\n\t\t\t\t\t\t\t\t\t\t\t\t\tdwh_22.d_member_beandisplayname.member_beandisplayname,\r\n\t\t\t\t\t\t\t\t\t\t\t\t\tdwh_22.d_membership_beanstatus.membership_beanstatus,\r\n\t\t\t\t\t\t\t\t\t\t\t\t\tdwh_22.d_memberkey.memberkey,\r\n\t\t\t\t\t\t\t\t\t\t\t\t\tdwh_22.c_miembros.membership_beanteam,\r\n\t\t\t\t\t\t\t\t\t\t\t\t\tdwh_22.d_name.\"name\" as \"Nombre Departamento\" \r\n\t\t\t\t\t\t\t\t\t\t\t\t\tFROM\r\n\t\t\t\t\t\t\t\t\t\t\t\t\tdwh_22.c_miembros\r\n\t\t\t\t\t\t\t\t\t\t\t\t\tLEFT JOIN dwh_22.d_membership_beanrolename \t\t\t\tON dwh_22.c_miembros.membershiprolename_id \t\t\t\t\t\t\t\t\t= dwh_22.d_membership_beanrolename.\"id\"\r\n\t\t\t\t\t\t\t\t\t\t\t\t\tLEFT JOIN dwh_22.d_membership_beandate_from_ansi \tON dwh_22.c_miembros.membership_beandate_from_ansi_id \t\t\t= dwh_22.d_membership_beandate_from_ansi.\"id\"\r\n\t\t\t\t\t\t\t\t\t\t\t\t\tLEFT JOIN dwh_22.d_membership_beandate_to_ansi \t\tON dwh_22.c_miembros.membership_beandate_to_ansi_id\t\t\t\t\t= dwh_22.d_membership_beandate_to_ansi.\"id\"\r\n\t\t\t\t\t\t\t\t\t\t\t\t\tLEFT JOIN dwh_22.d_member_beandisplayname \t\t\t\tON dwh_22.c_miembros.member_beandisplayname_id \t\t\t\t\t\t\t= dwh_22.d_member_beandisplayname.\"id\"\r\n\t\t\t\t\t\t\t\t\t\t\t\t\tLEFT JOIN dwh_22.d_membership_beanstatus \t\t\t\t\tON dwh_22.c_miembros.membership_beanstatu_id \t\t\t\t\t\t\t\t= dwh_22.d_membership_beanstatus.\"id\"\r\n\t\t\t\t\t\t\t\t\t\t\t\t\tLEFT JOIN dwh_22.d_memberkey \t\t\t\t\t\t\t\t\t\t\tON dwh_22.c_miembros.memberkey_id \t\t\t\t\t\t\t\t\t\t\t\t\t= dwh_22.d_memberkey.\"id\"\r\n\t\t\t\t\t\t\t\t\t\t\t\t\tINNER JOIN dwh_22.c_equipos \t\t\t\t\t\t\t\t\t\t\tON dwh_22.c_miembros.membership_beanteam \t\t\t\t\t\t\t\t\t\t= dwh_22.c_equipos.\"id\"\r\n\t\t\t\t\t\t\t\tINNER JOIN dwh_22.d_name \t\t\t\t\t\t\t\t\t\t\t\tON dwh_22.c_equipos.name_id \t\t\t\t\t\t\t\t\t\t\t\t\t= dwh_22.d_name.\"id\"\r\n\t\t\t\t\t\t\t\t\t\t\t) as team on dwh_22.d_assigneeuser_key.assigneeuser_key = team.memberkey\r\n\t\t\t\t\t\t\t\t\t\t\tLEFT JOIN \r\n\t\t\t\t\t\t\t\t\t\t\t(\r\n\t\t\t\t\t\t\t\t\t\t\tSELECT\r\n\t\t\t\t\t\t\t\t\t\t\t\tdwh_22.d_issue_key.issue_key, \r\n\t\t\t\t\t\t\t\t\t\t\t\tdwh_22.c_horasregistradas.hours\t\t\t\t\t\t\t\t\t\t\t\r\n\t\t\t\t\t\t\t\t\t\t\tFROM dwh_22.c_horasregistradas\r\n\t\tINNER JOIN dwh_22.d_issue_key ON dwh_22.c_horasregistradas.issue_key_id = dwh_22.d_issue_key.\"id\" where dwh_22.d_issue_key.issue_key like 'PMO-%' ORDER BY dwh_22.d_issue_key.issue_key desc\r\n\t\t\t\t\t\t\t\t\t\t\t) as worklog on dwh_22.d_plan_itemkey.plan_itemkey = worklog.issue_key\r\n\t\t\t\t\t\t\t\t\t\tINNER JOIN \r\n\t\t\t\t\t\t\t\t\t\t(\r\n\t\t\t\t\t\t\t\t\t\t\tSELECT\r\n\t\t\t\t\t\t\t\t\t\t\t\t\tdwh_22.d_incidente_padre.incidente_padre,\r\n\t\t\t\t\t\t\t\t\t\t\t\t\tdwh_22.d_descripcion_origen.descripcion_origen,\r\n\t\t\t\t\t\t\t\t\t\t\t\t\tdwh_22.d_estado_incidente_padre.estado_incidente_padre,\r\n\t\t\t\t\t\t\t\t\t\t\t\t\tdwh_22.d_usuario_jefe_de_fabrica.usuario_jefe_de_fabrica,\r\n\t\t\t\t\t\t\t\t\t\t\t\t\tdwh_22.d_usuario_lider_de_fabrica.usuario_lider_de_fabrica,\r\n\t\t\t\t\t\t\t\t\t\t\t\t\tdwh_22.d_usuario_lider_proyecto.usuario_lider_proyecto,\r\n\t\t\t\t\t\t\t\t\t\t\t\t\tdwh_22.d_incidente_hijo.incidente_hijo,\r\n\t\t\t\t\t\t\t\t\t\t\t\t\tdwh_22.d_descripcion_destino.descripcion_destino,\r\n\t\t\t\t\t\t\t\t\t\t\t\t\tdwh_22.c_data_jira.planificacion_original,\r\n\t\t\t\t\t\t\t\t\t\t\t\t\t--dwh_22.d_estado_incidente_hijo.estado_incidente_hijo,\r\n\t\t\t\t\t\t\t\t\t\t\t\t\t--dwh_22.d_incidente_hijosubincidente.incidente_hijosubincidente,\r\n\t\t\t\t\t\t\t\t\t\t\t\t\t--dwh_22.d_nombre_subtask.nombre_subtask,\r\n\t\t\t\t\t\t\t\t\t\t\t\t\t--dwh_22.d_estado_sub_task.estado_sub_task,\r\n\t\t\t\t\t\t\t\t\t\t\t\t\tdwh_22.d_comite_estimado.comite_estimado,\r\n\t\t\t\t\t\t\t\t\t\t\t\t\tdwh_22.d_funnel.funnel\r\n\t\t\t\t\t\t\t\t\t\t\t\t\tFROM\r\n\t\t\t\t\t\t\t\t\t\t\t\t\tdwh_22.c_data_jira\r\n\t\t\t\t\t\t\t\t\t\t\t\t\tINNER JOIN dwh_22.d_descripcion_origen ON dwh_22.c_data_jira.descripcion_origen_id = dwh_22.d_descripcion_origen.\"id\"\r\n\t\t\t\t\t\t\t\t\t\t\t\t\tINNER JOIN dwh_22.d_incidente_hijo ON dwh_22.c_data_jira.incidente_hijo_id = dwh_22.d_incidente_hijo.\"id\"\r\n\t\t\t\t\t\t\t\t\t\t\t\t\t--INNER JOIN dwh_22.d_incidente_hijosubincidente ON dwh_22.c_data_jira.incidente_hijosubincidente_id = dwh_22.d_incidente_hijosubincidente.\"id\"\r\n\t\t\t\t\t\t\t\t\t\t\t\t\tINNER JOIN dwh_22.d_descripcion_destino ON dwh_22.c_data_jira.descripcion_destino_id = dwh_22.d_descripcion_destino.\"id\"\r\n\t\t\t\t\t\t\t\t\t\t\t\t\t--INNER JOIN dwh_22.d_nombre_subtask ON dwh_22.c_data_jira.nombre_subtask_id = dwh_22.d_nombre_subtask.\"id\"\r\n\t\t\t\t\t\t\t\t\t\t\t\t\tINNER JOIN dwh_22.d_incidente_padre ON dwh_22.c_data_jira.incidente_padre_id = dwh_22.d_incidente_padre.\"id\"\r\n\t\t\t\t\t\t\t\t\t\t\t\t\tINNER JOIN dwh_22.d_estado_incidente_padre ON dwh_22.c_data_jira.estado_incidente_padre_id = dwh_22.d_estado_incidente_padre.\"id\"\r\n\t\t\t\t\t\t\t\t\t\t\t\t\tINNER JOIN dwh_22.d_estado_incidente_hijo ON dwh_22.c_data_jira.estado_incidente_hijo_id = dwh_22.d_estado_incidente_hijo.\"id\"\r\n\t\t\t\t\t\t\t\t\t\t\t\t\t--INNER JOIN dwh_22.d_estado_sub_task ON dwh_22.c_data_jira.estado_sub_task_id = dwh_22.d_estado_sub_task.\"id\"\r\n\t\t\t\t\t\t\t\t\t\t\t\t\t--INNER JOIN dwh_22.d_planificacion_original ON dwh_22.c_data_jira.planificacion_original_id = dwh_22.d_planificacion_original.\"id\"\r\n\t\t\t\t\t\t\t\t\t\t\t\t\tLEFT JOIN dwh_22.d_usuario_jefe_de_fabrica ON dwh_22.c_data_jira.usuario_jefe_de_fabrica_id = dwh_22.d_usuario_jefe_de_fabrica.\"id\"\r\n\t\t\t\t\t\t\t\t\t\t\t\t\tLEFT JOIN dwh_22.d_usuario_lider_de_fabrica ON dwh_22.c_data_jira.usuario_lider_de_fabrica_id = dwh_22.d_usuario_lider_de_fabrica.\"id\"\r\n\t\t\t\t\t\t\t\t\t\t\t\t\tLEFT JOIN dwh_22.d_usuario_lider_proyecto ON dwh_22.c_data_jira.usuario_lider_proyecto_id = dwh_22.d_usuario_lider_proyecto.\"id\"\r\n\t\t\t\t\t\t\t\t\t\t\t\t\tLEFT JOIN dwh_22.d_funnel ON dwh_22.c_data_jira.funnel_id = dwh_22.d_funnel.\"id\"\r\n\t\t\t\t\t\t\t\t\t\t\t\t\tLEFT JOIN dwh_22.d_comite_estimado on dwh_22.c_data_jira.comite_estimado_id = dwh_22.d_comite_estimado.\"id\"\r\n\t\t\t\t\t\t\t\t\t\t\t\t\t\t\t\t\t\t\t\t\t\t\t\t) as incidentes on dwh_22.d_plan_itemkey.plan_itemkey = incidentes.incidente_hijo\r\n\t\t\t\t\t\t\t\t\t\t\t\r\n order by   dwh_22.c_planificacion.\"id\" desc"
    },
    "columns_options": {
      "default_names": true
    },
    "extra_options": {
      "regular_import_frequency": null,
      "regular_import_at": "",
      "time_zone": "Santiago"
    }
  },
  "source_cube_name": "BASE",
  "columns": [
    {
      "name": "id",
      "data_type": "integer",
      "dimension": "Measures",
      "dimension_member": "Id"
    },
    {
      "name": "codigo",
      "data_type": "string",
      "dimension": "Codigo",
      "property": "issue key"
    },
    {
      "name": "Nombre",
      "data_type": "string",
      "dimension": "Nombre",
      "property": "summary task"
    },
    {
      "name": "Usuario Asignado",
      "data_type": "string",
      "dimension": "Usuario asignado",
      "property": "asignado"
    },
    {
      "name": "Usuario Asignado Sistema",
      "data_type": "string",
      "dimension": "Usuario asignado sistema",
      "property": "Usuario Asignado Sistema"
    },
    {
      "name": "Estado Issue",
      "data_type": "string",
      "dimension": "Estado issue",
      "property": "Estado Issue"
    },
    {
      "name": "Rol",
      "data_type": "string",
      "dimension": "Rol",
      "property": "Rol"
    },
    {
      "name": "% Asignado",
      "data_type": "decimal",
      "dimension": "Measures",
      "dimension_member": "% asignado"
    },
    {
      "name": "Nombre Departamento",
      "data_type": "string",
      "dimension": "Nombre departamento",
      "property": "Nombre Departamento"
    },
    {
      "name": "Fecha inicio plan",
      "data_type": "datetime",
      "dimension": "Fecha inicio plan"
    },
    {
      "name": "Fecha termino plan",
      "data_type": "datetime",
      "dimension": "Fecha termino plan"
    },
    {
      "name": "Segundos planificados por dia",
      "data_type": "decimal",
      "dimension": "Measures",
      "dimension_member": "Segundos planificados por dia"
    },
    {
      "name": "Segundos totales planificados",
      "data_type": "decimal",
      "dimension": "Measures",
      "dimension_member": "Segundos totales planificados"
    },
    {
      "name": "Segundos disponibles para estimacion",
      "data_type": "decimal",
      "dimension": "Measures",
      "dimension_member": "Segundos disponibles para estimacion"
    },
    {
      "name": "Planificacion Base",
      "data_type": "decimal",
      "dimension": "Measures",
      "dimension_member": "Planificacion base"
    },
    {
      "name": "Horas registradas",
      "data_type": "decimal",
      "dimension": "Horas registradas"
    },
    {
      "name": "Planificacion creada por (USER)",
      "data_type": "string",
      "dimension": "Planificacion creada por (user)",
      "property": "Planificacion creada por (USER)"
    },
    {
      "name": "Planificacion creada por (KEY)",
      "data_type": "string",
      "dimension": "Planificacion creada por (key)",
      "property": "Planificacion creada por (KEY)"
    },
    {
      "name": "KEY PROJECTO",
      "data_type": "string",
      "dimension": "Key projecto",
      "property": "KEY PROJECTO"
    },
    {
      "name": "DESC PROJECTO",
      "data_type": "string",
      "dimension": "Desc projecto",
      "property": "DESC PROJECTO"
    },
    {
      "name": "ESTADO PROJECTO",
      "data_type": "string",
      "dimension": "Estado projecto",
      "property": "ESTADO PROJECTO"
    },
    {
      "name": "KEY TAREA",
      "data_type": "string",
      "dimension": "Key tarea",
      "property": "KEY TAREA"
    },
    {
      "name": "DESC TAREA",
      "data_type": "string",
      "dimension": "Desc tarea",
      "property": "DESC TAREA"
    },
    {
      "name": "usuario_jefe_de_fabrica",
      "data_type": "string",
      "dimension": "Usuario jefe de fabrica",
      "property": "usuario_jefe_de_fabrica"
    },
    {
      "name": "usuario_lider_de_fabrica",
      "data_type": "string",
      "dimension": "Usuario lider de fabrica",
      "property": "usuario_lider_de_fabrica"
    },
    {
      "name": "usuario_lider_proyecto",
      "data_type": "string",
      "dimension": "Usuario lider proyecto",
      "property": "usuario_lider_proyecto"
    },
    {
      "name": "comite_estimado",
      "data_type": "string",
      "dimension": "Comite estimado",
      "property": "comite_estimado"
    },
    {
      "name": "funnel",
      "data_type": "string",
      "dimension": "Funnel",
      "property": "funnel"
    }
  ]
}