{
  "application_type": "sql",
  "application_params": {
    "source_params": {
      "adapter": "postgresql",
      "host": "152.139.147.122",
      "port": 5432,
      "database": "jira_qa",
      "username": "postgres",
      "password": null,
      "incremental": null,
      "sql": "SELECT\r\nissuelink.id\t\t\t\t\t\t\t\t\t\t\t        as \"fila_unica\"\r\n,issuelinktype.linkname\t\t\t\t\t\t      \tas \"Link Origen\"\r\n,issue_origen.id \t\t\t\t\t\t\t\t\t        as \"id origen\"\r\n,concat('PMO-',issue_origen.issuenum)\t  \tas \"Incidente Padre\"\r\n,issue_destino.id\t\t\t\t\t\t\t\t\t\t\t    as \"id destino\"\r\n,issue_origen.summary\t\t\t\t\t\t\t\t\t\t\tas \"Descripcion origen\"\r\n,estado_origen.pname\t\t\t\t\t\t\t\t\t\t\tas \"Estado Incidente Padre\"\r\n,comite.customvalue\t\t\t\t\t\t\t\t\t\t\t\tas \"Comite Estimado\"\r\n,funnel.customvalue\t\t\t\t\t\t\t\t\t\t\t\tas \"Funnel\"\r\n,\"liderproyecto\".stringvalue \t\t\t\t\t\t\tas \"Usuario Lider Proyecto\"\r\n,\"jefefabrica\".stringvalue \t\t\t\t\t\t\t\tas \"Usuario Jefe de Fabrica\"\r\n,\"liderjefefabrica\".stringvalue\t\t\t\t\t\tas \"Usuario Lider de Fabrica\"\r\n,concat('PMO-',issue_destino.issuenum)\t\tas \"Incidente hijo\"\r\n,issue_destino.summary\t\t\t\t\t\t\t\t\t\tas \"Descripcion destino\"\r\n,estado_destino.pname\t\t\t\t\t\t\t\t\t\t\tas \"Estado Incidente hijo\"\r\n,\"planoriginal\".stringvalue \t\t\t\t\t\t\tas \"planificacion original\"\r\n,case when lineabase.planbase is null then lineabase.stringvalue::float\telse lineabase.planbase::float end as \"linea_base\"\r\nFROM issuelink \r\nINNER JOIN issuelinktype ON issuelink.linktype = issuelinktype.id\r\nINNER JOIN jiraissue AS issue_origen ON issuelink.source = issue_origen.id\r\nINNER JOIN issuestatus as estado_origen on issue_origen.issuestatus = estado_origen.id\r\nINNER JOIN jiraissue AS issue_destino ON issuelink.destination = issue_destino.id\r\nINNER JOIN issuestatus as estado_destino on issue_destino.issuestatus = estado_destino.id\r\nLEFT JOIN (\r\n\t\t\t\t\t\t\t\t\t\tselect\r\n\t\t\t\t\t\t\t\tCFV.stringvalue\r\n\t\t\t\t\t\t\t\t, CF.cfname\r\n\t\t\t\t\t\t\t\t, JI.id as taskid\r\n\t\t\t\t\t\t\t\tfrom CustomFieldValue CFV\r\n\t\t\t\t\t\t\t\tinner join CustomField CF on CFV.CustomField = CF.Id\r\n\t\t\t\t\t\t\t\tinner join JiraIssue JI on CFV.Issue = JI.Id\r\n\t\t\t\t\t\t\t\tinner join Project P on JI.Project = P.Id\r\n\t\t\t\t\t\t\t\twhere CF.cfname = 'PlanificacionTotal'\r\n\t) \r\nAS planoriginal ON CAST(coalesce(issuelink.destination, '0') AS integer) = planoriginal.taskid\r\nLEFT JOIN (\r\n\t\t\t\t\t\t\t\t\tselect\r\n\t\t\t\t\t\t\t\t\tCFV.numbervalue::DECIMAL\r\n\t\t\t\t\t\t\t\t\t,\tplanfix.planbase\r\n\t\t\t\t\t\t\t\t\t, CFV.stringvalue\r\n\t\t\t\t\t\t\t\t\t, CF.cfname\r\n\t\t\t\t\t\t\t\t\t, JI.id as taskid\r\n\t\t\t\t\t\t\t\t\tfrom CustomFieldValue CFV\r\n\t\t\t\t\t\t\t\t\tinner join CustomField CF on CFV.CustomField = CF.Id\r\n\t\t\t\t\t\t\t\t\tinner join JiraIssue JI on CFV.Issue = JI.Id\r\n\t\t\t\t\t\t\t\t\tinner join Project P on JI.Project = P.Id\r\n\t\t\t\t\t\t\t\t\tleft join (\r\n\t\t\t\t\t\t\t\t\t\tselect\r\n\t\t\t\t\t\t\t\t\t\t\t\t\t\t\t\tCFV.numbervalue::DECIMAL as planbase\r\n\t\t\t\t\t\t\t\t\t\t\t\t\t\t\t\t, CF.cfname\r\n\t\t\t\t\t\t\t\t\t\t\t\t\t\t\t\t, JI.id as taskid\r\n\t\t\t\t\t\t\t\t\t\t\t\t\t\t\t\tfrom CustomFieldValue CFV\r\n\t\t\t\t\t\t\t\t\t\t\t\t\t\t\t\tinner join CustomField CF on CFV.CustomField = CF.Id\r\n\t\t\t\t\t\t\t\t\t\t\t\t\t\t\t\tinner join JiraIssue JI on CFV.Issue = JI.Id\r\n\t\t\t\t\t\t\t\t\t\t\t\t\t\t\t\tinner join Project P on JI.Project = P.Id\r\n\t\t\t\t\t\t\t\t\t\t\t\t\t\t\t\twhere CF.cfname = 'planfix'\r\n\t\t\t\t\t\t\t\t\t) as planfix on JI.id = planfix.taskid where CF.cfname = 'PlanificacionTotal'\r\n\t) \r\nAS lineabase ON CAST(coalesce(issuelink.destination, '0') AS integer) = lineabase.taskid\r\n\tLEFT JOIN (\r\n\t\t\t\t\t\t\t\t\t\tselect\r\n\t\t\t\t\t\t\t\tCFV.stringvalue\r\n\t\t\t\t\t\t\t\t, CF.cfname\r\n\t\t\t\t\t\t\t\t, JI.id as taskid\r\n\t\t\t\t\t\t\t\tfrom CustomFieldValue CFV\r\n\t\t\t\t\t\t\t\tinner join CustomField CF on CFV.CustomField = CF.Id\r\n\t\t\t\t\t\t\t\tinner join JiraIssue JI on CFV.Issue = JI.Id\r\n\t\t\t\t\t\t\t\tinner join Project P on JI.Project = P.Id\r\n\t\t\t\t\t\t\t\twhere CF.cfname = 'Líder Proyecto'\r\n\t) \r\nAS liderproyecto ON CAST(coalesce(issuelink.destination, '0') AS integer) = liderproyecto.taskid\r\n\tLEFT JOIN (\r\n\t\t\t\t\t\t\t\t\t\tselect\r\n\t\t\t\t\t\t\t\tCFV.stringvalue\r\n\t\t\t\t\t\t\t\t, CF.cfname\r\n\t\t\t\t\t\t\t\t, JI.id as taskid\r\n\t\t\t\t\t\t\t\tfrom CustomFieldValue CFV\r\n\t\t\t\t\t\t\t\tinner join CustomField CF on CFV.CustomField = CF.Id\r\n\t\t\t\t\t\t\t\tinner join JiraIssue JI on CFV.Issue = JI.Id\r\n\t\t\t\t\t\t\t\tinner join Project P on JI.Project = P.Id\r\n\t\t\t\t\t\t\t\twhere CF.cfname = 'Líder Jefe Fábrica'\r\n\t) \r\nAS liderjefefabrica ON CAST(coalesce(issuelink.destination, '0') AS integer) = liderjefefabrica.taskid\r\n\tLEFT JOIN (\r\n\t\t\t\t\t\t\t\t\t\t\tselect\r\n\t\t\t\t\t\t\t\t\tCFV.stringvalue\r\n\t\t\t\t\t\t\t\t\t, CF.cfname\r\n\t\t\t\t\t\t\t\t\t, JI.id as taskid\r\n\t\t\t\t\t\t\t\t\tfrom CustomFieldValue CFV\r\n\t\t\t\t\t\t\t\t\tinner join CustomField CF on CFV.CustomField = CF.Id\r\n\t\t\t\t\t\t\t\t\tinner join JiraIssue JI on CFV.Issue = JI.Id\r\n\t\t\t\t\t\t\t\t\tinner join Project P on JI.Project = P.Id\r\n\t\t\t\t\t\t\t\t\twhere CF.cfname = 'Jefe Fábrica'\r\n\t\t) \r\nAS jefefabrica ON CAST(coalesce(issuelink.destination, '0') AS integer) = jefefabrica.taskid\r\n\tJOIN (\r\n\t\tselect\r\n\t\t\t\t\tCFV.stringvalue\r\n\t\t\t\t\t, CF.cfname\r\n\t\t\t\t\t, CFO.customvalue\r\n\t\t\t\t\t, P.PKey || '-' || JI.IssueNum as numeroTicket\r\n\t\t\t\t\tfrom CustomFieldValue CFV\r\n\t\t\t\t\tinner join CustomField CF on CFV.CustomField = CF.Id\r\n\t\t\t\t\tinner join JiraIssue JI on CFV.Issue = JI.Id\r\n\t\t\t\t\tinner join Project P on JI.Project = P.Id\r\n\t\t\t\t\tleft join customfieldoption CFO on cfo.id::VARCHAR = CFV.stringvalue::VARCHAR\r\n\t\t\t\t\twhere CF.cfname = 'Comite Estimado' \r\n\t)\r\nAS comite ON concat('PMO-',issue_origen.issuenum) = comite.numeroTicket\r\nleft JOIN (\r\n\t\tselect\r\n\t\t\t\t\tCFV.stringvalue\r\n\t\t\t\t\t, CF.cfname\r\n\t\t\t\t\t, CFO.customvalue\r\n\t\t\t\t\t, P.PKey || '-' || JI.IssueNum as numeroTicket\r\n\t\t\t\t\tfrom CustomFieldValue CFV\r\n\t\t\t\t\tinner join CustomField CF on CFV.CustomField = CF.Id\r\n\t\t\t\t\tinner join JiraIssue JI on CFV.Issue = JI.Id\r\n\t\t\t\t\tinner join Project P on JI.Project = P.Id\r\n\t\t\t\t\tleft join customfieldoption CFO on cfo.id::VARCHAR = CFV.stringvalue::VARCHAR\r\n\t\t\t\t\twhere CF.cfname = 'Funnel' \r\n\t)\r\nAS funnel ON concat('PMO-',issue_origen.issuenum) = funnel.numeroTicket\r\nwhere issue_origen.project = 17400 and issue_destino.project = 17400 and issuelinktype.linkname = 'Epic-Story Link' and issue_destino.summary like '[CAP] %'"
    },
    "columns_options": {
      "default_names": true
    },
    "extra_options": {
      "regular_import_frequency": null,
      "regular_import_at": "",
      "time_zone": "Santiago"
    }
  },
  "source_cube_name": "DATA_JIRA_TIEMPOS",
  "columns": [
    {
      "name": "fila_unica",
      "data_type": "integer",
      "dimension": "Measures",
      "dimension_member": "Fila Unica"
    },
    {
      "name": "Link Origen",
      "data_type": "string",
      "dimension": "Link origen"
    },
    {
      "name": "id origen",
      "data_type": "integer",
      "dimension": "Measures",
      "dimension_member": "Id origen"
    },
    {
      "name": "Incidente Padre",
      "data_type": "string",
      "dimension": "Incidente padre"
    },
    {
      "name": "id destino",
      "data_type": "integer",
      "dimension": "Measures",
      "dimension_member": "Id destino"
    },
    {
      "name": "Descripcion origen",
      "data_type": "string",
      "dimension": "Descripcion origen"
    },
    {
      "name": "Estado Incidente Padre",
      "data_type": "string",
      "dimension": "Estado incidente padre"
    },
    {
      "name": "Comite Estimado",
      "data_type": "string",
      "dimension": "Comite estimado"
    },
    {
      "name": "Funnel",
      "data_type": "string",
      "dimension": "Funnel"
    },
    {
      "name": "Usuario Lider Proyecto",
      "data_type": "string",
      "dimension": "Usuario lider proyecto"
    },
    {
      "name": "Usuario Jefe de Fabrica",
      "data_type": "string",
      "dimension": "Usuario jefe de fabrica"
    },
    {
      "name": "Usuario Lider de Fabrica",
      "data_type": "string",
      "dimension": "Usuario lider de fabrica"
    },
    {
      "name": "Incidente hijo",
      "data_type": "string",
      "dimension": "Incidente hijo"
    },
    {
      "name": "Descripcion destino",
      "data_type": "string",
      "dimension": "Descripcion destino"
    },
    {
      "name": "Estado Incidente hijo",
      "data_type": "string",
      "dimension": "Estado incidente hijo"
    },
    {
      "name": "planificacion original",
      "data_type": "decimal",
      "scale": null,
      "dimension": "Measures",
      "dimension_member": "Planificacion original"
    },
    {
      "name": "linea_base",
      "data_type": "decimal",
      "dimension": "Measures",
      "dimension_member": "Linea Base"
    }
  ]
}