{
  "application_type": "sql",
  "application_params": {
    "source_params": {
      "adapter": "postgresql",
      "host": "152.139.147.122",
      "port": 5432,
      "database": "eazybi_qa",
      "username": "postgres",
      "password": null,
      "incremental": null,
      "sql": "/*\r\nNombre CUBO : LOGEO_HORAS\r\nServidor : 152.139.147.122\r\npuerto : 5432\r\nbase de datos : eazybi_qa\r\nusuario : postgres\r\nCliente : BCH-GESCAP\r\n*/\r\n\r\nselect \"max\"(logeo.worklog) id , \r\n\t\t\t\tlogeo.username \"Usuario Asignado\", \r\n\t\t\t\tdataplan.UsuarioAsignadoSistema ,  \r\n\t\t\t\tlogeo.fecha, \r\n\t\t\t\tlogeo.issue_key, logeo.horas from \r\n\r\n(\r\nSELECT DISTINCT ON (dwh_22.c_horasregistradas.worklog)\r\n\tdwh_22.c_horasregistradas.worklog,\r\n\tdwh_22.d_staff.staff,\r\n\tdwh_22.d_username.username,\r\n\tdwh_22.d_time.time_value as fecha,\r\n\tdwh_22.d_issue_key.issue_key,\r\n\tSUM ( dwh_22.c_horasregistradas.hours ) AS horas \r\nFROM\r\n\tdwh_22.c_horasregistradas\r\n\tINNER JOIN dwh_22.d_staff \t\t\tON dwh_22.c_horasregistradas.staff_id \t\t\t= dwh_22.d_staff.\"id\"\r\n\tINNER JOIN dwh_22.d_username \t\tON dwh_22.c_horasregistradas.username_id \t\t= dwh_22.d_username.\"id\"\r\n\tINNER JOIN dwh_22.d_time \t\t\t\tON dwh_22.c_horasregistradas.time_id \t\t\t= dwh_22.d_time.\"id\"\r\n\tINNER JOIN dwh_22.d_issue_key \tON dwh_22.c_horasregistradas.issue_key_id \t\t= dwh_22.d_issue_key.\"id\" \r\nWHERE\r\n\tdwh_22.d_issue_key.issue_key LIKE 'PMO-%' --and d_issue_key.issue_key = 'PMO-9417'\r\n\t\r\n\tgroup by\r\n\tdwh_22.c_horasregistradas.worklog,\r\n\tdwh_22.d_staff.staff, \r\n\tdwh_22.d_username.username, \r\n\tdwh_22.d_time.time_value, \r\n\tdwh_22.d_issue_key.issue_key\r\n\t\t\r\n\t) logeo \r\n\tLEFT JOIN \r\n\t\t(\r\n\t\tSELECT\r\n\tdwh_22.d_assigneekey.assigneekey \t\t\t\t\t\t\t\t\t\t\t\t\tAS UsuarioAsignado,\r\n\tdwh_22.d_assigneeuser_key.assigneeuser_key \t\t\t\t\t\t\t\tAS UsuarioAsignadoSistema\r\nFROM\r\n\tdwh_22.c_planificacion\r\n\tINNER JOIN dwh_22.d_assigneekey ON dwh_22.c_planificacion.assigneekey_id = dwh_22.d_assigneekey.id\r\n\tINNER JOIN dwh_22.d_assigneeuser_key ON dwh_22.c_planificacion.assigneeuser_key_id = dwh_22.d_assigneeuser_key.id\r\n\tINNER JOIN dwh_22.d_plan_itemkey ON dwh_22.c_planificacion.plan_itemkey_id = dwh_22.d_plan_itemkey.id\r\n\tINNER JOIN dwh_22.d_plan_itemsummary ON dwh_22.c_planificacion.plan_itemsummary_id = dwh_22.d_plan_itemsummary.id\r\n\tINNER JOIN dwh_22.d_start_time ON dwh_22.c_planificacion.start_time_id = dwh_22.d_start_time.id\r\n\tINNER JOIN dwh_22.d_start ON dwh_22.c_planificacion.start_id = dwh_22.d_start.id\r\n\tINNER JOIN dwh_22.d_end ON dwh_22.c_planificacion.end_id = dwh_22.d_end.id\r\n\tINNER JOIN dwh_22.d_plan_itemissue_statusname ON dwh_22.c_planificacion.plan_itemissue_statusname_id = d_plan_itemissue_statusname.id\r\n\tINNER JOIN dwh_22.d_created_by ON dwh_22.c_planificacion.created_by_id = dwh_22.d_created_by.id\r\n\tINNER JOIN dwh_22.d_created_by_key ON dwh_22.c_planificacion.created_by_key_id = dwh_22.d_created_by_key.id \r\nWHERE\r\n\td_plan_itemkey.plan_itemkey LIKE 'PMO-%' \r\n\t\r\ngroup by dwh_22.d_assigneekey.assigneekey,\r\n\tdwh_22.d_assigneeuser_key.assigneeuser_key\r\n\t\t) as dataplan on logeo.username = dataplan.UsuarioAsignado\r\n\r\n\t\r\n\tGROUP BY logeo.username,dataplan.UsuarioAsignadoSistema,  logeo.fecha, logeo.issue_key, logeo.horas\r\n\tORDER BY logeo.fecha"
    },
    "columns_options": {
      "default_names": true
    },
    "extra_options": {
      "regular_import_frequency": null,
      "regular_import_at": "",
      "time_zone": "Santiago"
    }
  },
  "source_cube_name": "LOGEO_HORAS",
  "columns": [
    {
      "name": "id",
      "data_type": "integer",
      "dimension": "Measures",
      "dimension_member": "Id"
    },
    {
      "name": "Usuario Asignado",
      "data_type": "string",
      "dimension": "Usuario asignado"
    },
    {
      "name": "usuarioasignadosistema",
      "data_type": "string",
      "dimension": "Usuarioasignadosistema"
    },
    {
      "name": "fecha",
      "data_type": "datetime",
      "dimension": "Time"
    },
    {
      "name": "issue_key",
      "data_type": "string",
      "dimension": "Issue Key"
    },
    {
      "name": "horas",
      "data_type": "decimal",
      "dimension": "Measures",
      "dimension_member": "Horas"
    }
  ]
}